{
	"AgencyName": "NIFA",
	"ApplicationTitle": "Symbiotic dialogue in tripartite interactions of legumes",
	"Author": "eAV",
	"CreatorName": "NIFA",
	"GrantsTrackingId":"GRANT12327927 / 2017-02908",
	"Keywords": "Grants.gov, USDA, CSREES, NIFA",
	"PhdName":"Heike Bucking",
	"OrganizationName": "South Dakota State Universtiy",
	"SubmitterName": "Joan Johnson",
	
	"Attachments": [
		{
			"FileName": "file1.pdf",
			"FileContent": "base64 encoded content"
		},
		{
			"FileName": "file2.pdf",
			"FileContent": "base64 encoded content"
		}
	]
}