{
	"Program": {
		"Agency":"NIFA",
		"FiscalYear":"2018",
		"AppropriationType":"FINAL".
		"MBSetAsideAmount":"234999.00",
		"PperaIncreaseAmount":"7800.00",
		"PaymentToStates":"291742500.00",
		"SubPrograms": [
			{
				"SubProgramId":"SLMB",
				"PriorYearAmount":"1196560.00"
			},
			{
				"SubProgramId":"SLSNP",
				"PriorYearAmount":"462744.00"
			},
			{
				"SubProgramId":"SLSNF",
				"PriorYearAmount":"1029979.00"
			},
			{
				"SubProgramId":"SL3B3C",
				"PriorYearAmount":"288676390.00"
			}
		]
	}
}