{
	"title": "PdfStitchRequest",
	"required": false,
	"type": "object",
	"properties": {
		"documents": {
			"type": "array",
			"items": {
				"type": "object",
				"additionalProperties": false,
				"properties": {
					"uri": {
						"type": "string"
					},
					"bookmark": {
						"type": "string"
					},
					"node": {
						"type": "string"
					}
				}
			}
		},
		"footers": {
			"type": "array",
			"items": {
				"type": "object",
				"additionalProperties": false,
				"properties": {
					"type": {
						"type": "string",
						"enum": ["TEXT","PAGE_NUMBER"]
					},
					"format": {
						"type": "string",
						"enum": ["SIMPLE","SIMPLE_WITH_TOTAL"]
					},
					"text": {
						"type": "string"
					},
					"width": {
						"type": "string"
					},
					"alignment": {
						"type": "string",
						"enum": ["LEFT","RIGHT","CENTER"]
					}
				}
			}
		}
	}
}